{
  "project_info": {
    "project_number": "711762490898",
    "project_id": "first-step-b3a54",
    "storage_bucket": "first-step-b3a54.appspot.com"
  },
  "client": [
    {
      "client_info": {
        "mobilesdk_app_id": "1:711762490898:android:511279df52a00dd4574acb",
        "android_client_info": {
          "package_name": "sa.aait.flutter.firstStep"
        }
      },
      "oauth_client": [
        {
          "client_id": "711762490898-m62ragfogaivh529paed7ujtbmdv93qe.apps.googleusercontent.com",
          "client_type": 3
        }
      ],
      "api_key": [
        {
          "current_key": "AIzaSyB1RqlFgSrEvRDas9cOcyBjyjpOrkYazfg"
        }
      ],
      "services": {
        "appinvite_service": {
          "other_platform_oauth_client": [
            {
              "client_id": "711762490898-m62ragfogaivh529paed7ujtbmdv93qe.apps.googleusercontent.com",
              "client_type": 3
            },
            {
              "client_id": "711762490898-9q3ld55pqo1v9qs1t1tge5bue9c6glk1.apps.googleusercontent.com",
              "client_type": 2,
              "ios_info": {
                "bundle_id": "sa.aait.flutter.firstStep"
              }
            }
          ]
        }
      }
    }
  ],
  "configuration_version": "1"
}